1,1
1,2
1,3
2,4
2,5
2,6
2,7
3,8
4,9
4,10
5,11
6,12
6,13
7,14
7,15
7,16
7,17
7,18
7,19
7,20
8,21
8,22
8,23
8,24
8,25
8,26
10,27
10,28
10,29
10,30
10,31
10,32
10,33
10,34
11,35
11,36
11,37
12,38
12,39
12,40
12,41
12,42
12,43
12,44
12,45
12,46
13,47
13,48
12,49
14,50
14,51
14,52
14,53
15,54
15,55
15,56
16,57
16,58
16,59
16,60
16,61
16,62
16,63
16,64
17,65
17,66
17,67
17,68
17,69
17,70
17,71
17,72
17,73
18,74
18,75
18,76
18,77
18,78
18,79
18,80
19,81
19,82
19,83
19,84
19,85
18,86
18,87
18,88
18,89
18,90
18,91
18,92
19,93
19,94
19,95
19,96
19,97
19,98
19,99
20,100
20,101
20,102
20,103
19,104
19,105
20,106
20,107
20,108
21,109
21,110
20,111
20,112
19,113
19,114
19,115
19,116
19,117
19,118
19,119
18,120
18,121
18,122
18,123
18,124
20,125
20,126
19,127
19,128
18,129
19,130
19,131
20,132
19,133
19,134
19,135
18,136
19,137
19,138
19,139
19,140
19,141
18,142
19,143
19,144
19,145
20,146
20,147
21,148
22,149
22,150
22,151
22,152
22,153
22,154
22,155
22,156
23,157
23,158
24,159
24,160
25,161
24,162
25,163
25,164
25,165
25,166
25,167
26,168
26,169
25,170
25,171
25,172
25,173
25,174
26,175
26,176
26,177
26,178
26,179
25,180
25,181
24,182
24,183
24,184
24,185
23,186
22,187
22,188
21,189
21,190
21,191
22,192
22,193
22,194
22,195
22,196
21,197
21,198
21,199
21,200
21,201
21,202
21,203
21,204
21,205
21,206
20,207
19,208
19,209
19,210
19,211
19,212
18,213
18,214
18,215
18,216
18,217
19,218
19,219
19,220
19,221
19,222
19,223
19,224
20,225
20,226
20,227
20,228
20,229
20,230
20,231
19,232
19,233
19,234
18,235
18,236
18,237
18,238
18,239
17,240
17,241
17,242
17,243
17,244
16,245
17,246
17,247
17,248
16,249
16,250
16,251
15,252
15,253
15,254
15,255
15,256
15,257
15,258
15,259
16,260
16,261
16,262
16,263
16,264
16,265
17,266
16,267
17,268
17,269
17,270
17,271
17,272
17,273
16,274
16,275
16,276
17,277
17,278
17,279
16,280
17,281
17,282
17,283
17,284
17,285
17,286
17,287
16,288
15,289
15,290
15,291
16,292
15,293
15,294
14,295
14,296
14,297
14,298
14,299
14,300
14,301
13,302
13,303
12,304
12,305
11,306
11,307
11,308
11,309
11,310
10,311
10,312
10,313
10,314
10,315
10,316
13,317
13,318
13,319
14,320
15,321
15,322
15,323
16,324
16,325
16,326
17,327
17,328
17,329
17,330
18,331
18,332
18,333
18,334
18,335
18,336
19,337
19,338
19,339
19,340
20,341
20,342
20,343
20,344
20,345
20,346
20,347
20,348
21,349
22,350
23,351
24,352
23,353
23,354
24,355
23,356
22,357
22,358
22,359
23,360
23,361
23,362
24,363
24,364
24,365
24,366
24,367
24,368
25,369
24,370
24,371
23,372
23,373
23,374
23,375
22,376
23,377
23,378
23,379
24,380
23,381
23,382
23,383
24,384
24,385
23,386
23,387
23,388
23,389
23,390
23,391
22,392
22,393
22,394
22,395
22,396
21,397
21,398
21,399
21,400
21,401
20,402
20,403
20,404
20,405
20,406
20,407
20,408
20,409
19,410
19,411
18,412
17,413
17,414
17,415
17,416
17,417
16,418
16,419
16,420
15,421
16,422
15,423
15,424
15,425
14,426
14,427
14,428
14,429
14,430
14,431
14,432
14,433
14,434
14,435
14,436
14,437
14,438
14,439
14,440
13,441
12,442
12,443
13,444
13,445
13,446
13,447
12,448
12,449
12,450
12,451
12,452
11,453
11,454
10,455
9,456
9,457
8,458
8,459
8,460
8,461
8,462
8,463
7,464
7,465
8,466
8,467
8,468
8,469
9,470
9,471
9,472
9,473
9,474
9,475
9,476
8,477
8,478
8,479
8,480
8,481
8,482
8,483
8,484
8,485
8,486
8,487
8,488
8,489
8,490
8,491
8,492
8,493
9,494
8,495
8,496
8,497
8,498
8,499
8,500
8,501
9,502
10,503
9,504
9,505
10,506
10,507
10,508
10,509
11,510
11,511
11,512
13,513
13,514
15,515
15,516
16,517
16,518
16,519
16,520
15,521
15,522
16,523
16,524
16,525
16,526
16,527
16,528
15,529
15,530
15,531
16,532
16,533
16,534
16,535
16,536
16,537
17,538
17,539
17,540
18,541
18,542
17,543
18,544
17,545
19,546
19,547
18,548
18,549
18,550
18,551
18,552
17,553
17,554
17,555
18,556
19,557
19,558
20,559
20,560
20,561
20,562
20,563
20,564
20,565
20,566
21,567
21,568
22,569
22,570
23,571
24,572
24,573
24,574
25,575
25,576
26,577
26,578
26,579
26,580
27,581
27,582
28,583
28,584
27,585
27,586
28,587
28,588
30,589
31,590
32,591
32,592
32,593
32,594
33,595
33,596
33,597
33,598
33,599
34,600
34,601
33,602
33,603
33,604
33,605
33,606
32,607
32,608
32,609
32,610
33,611
33,612
33,613
33,614
33,615
34,616
33,617
33,618
32,619
32,620
33,621
33,622
32,623
32,624
31,625
31,626
30,627
30,628
29,629
29,630
28,631
28,632
27,633
27,634
27,635
27,636
27,637
27,638
27,639
28,640
28,641
28,642
28,643
28,644
28,645
29,646
29,647
29,648
29,649
29,650
30,651
30,652
31,653
31,654
31,655
31,656
32,657
32,658
33,659
33,660
33,661
33,662
33,663
32,664
32,665
32,666
32,667
34,668
34,669
33,670
34,671
34,672
34,673
33,674
32,675
32,676
31,677
31,678
31,679
30,680
29,681
29,682
28,683
28,684
27,685
27,686
27,687
27,688
27,689
26,690
26,691
26,692
26,693
26,694
27,695
27,696
27,697
28,698
28,699
28,700
27,701
28,702
27,703
26,704
26,705
26,706
26,707
26,708
26,709
26,710
26,711
25,712
26,713
25,714
25,715
25,716
25,717
25,718
24,719
24,720
24,721
23,722
24,723
25,724
24,725
23,726
23,727
23,728
24,729
24,730
23,731
25,732
25,733
24,734
23,735
22,736
22,737
22,738
21,739
21,740
20,741
20,742
20,743
20,744
20,745
19,746
19,747
20,748
19,749
20,750
19,751
19,752
19,753
20,754
20,755
21,756
21,757
21,758
20,759
19,760
19,761
19,762
19,763
19,764
19,765
19,766
19,767
19,768
19,769
18,770
18,771
18,772
18,773
18,774
18,775
19,776
19,777
19,778
19,779
19,780
20,781
20,782
20,783
20,784
21,785
21,786
21,787
21,788
21,789
21,790
21,791
21,792
21,793
22,794
22,795
22,796
23,797
23,798
22,799
22,800
22,801
22,802
21,803
21,804
21,805
22,806
22,807
22,808
22,809
22,810
22,811
22,812
21,813
21,814
21,815
21,816
20,817
20,818
19,819
19,820
18,821
18,822
17,823
17,824
16,825
16,826
15,827
15,828
14,829
14,830
14,831
14,832
14,833
14,834
13,835
13,836
13,837
13,838
13,839
12,840
12,841
12,842
12,843
12,844
12,845
11,846
11,847
11,848
11,849
10,850
10,851
10,852
9,853
9,854
9,855
9,856
9,857
9,858
9,859
8,860
7,861
7,862
6,863
5,864
5,865
5,866
4,867
4,868
3,869
3,870
3,871
3,872
3,873
3,874
3,875
2,876
1,877
1,878
1,879
1,880
1,881
1,882
1,883
1,884
1,885
1,886
1,887
1,888
1,889
1,890
1,891
1,892
1,893
1,894
1,895
1,896
1,897
1,898
1,899
1,900
1,901
1,902
1,903
