1,1
1,2
1,3
1,4
1,5
1,6
1,7
1,8
1,9
1,10
1,11
1,12
1,13
1,14
1,15
1,16
1,17
2,18
2,19
2,20
2,21
2,22
2,23
2,24
2,25
2,26
2,27
2,28
2,29
2,30
2,31
2,32
2,33
2,34
2,35
2,36
2,37
2,38
3,39
3,40
3,41
3,42
3,43
3,44
3,45
3,46
3,47
3,48
3,49
3,50
3,51
3,52
3,53
3,54
3,55
3,56
3,57
3,58
3,59
3,60
5,61
5,62
5,63
5,64
5,65
5,66
5,67
5,68
5,69
5,70
5,71
5,72
5,73
5,74
5,75
5,76
5,77
5,78
5,79
5,80
5,81
5,82
5,83
5,84
5,85
5,86
5,87
5,88
5,89
5,90
5,91
5,92
6,93
6,94
6,95
6,96
6,97
6,98
6,99
7,100
7,101
7,102
7,103
8,104
8,105
8,106
8,107
8,108
8,109
8,110
9,111
9,112
9,113
9,114
9,115
10,116
11,117
11,118
11,119
11,120
11,121
11,122
11,123
12,124
12,125
12,126
12,127
13,128
13,129
14,130
14,131
14,132
14,133
14,134
14,135
14,136
14,137
14,138
14,139
14,140
14,141
14,142
14,143
14,144
14,145
14,146
15,147
15,148
15,149
15,150
15,151
15,152
16,153
16,154
16,155
16,156
16,157
16,158
16,159
16,160
16,161
16,162
18,163
18,164
18,165
18,166
18,167
18,168
18,169
18,170
18,171
18,172
18,173
18,174
18,175
18,176
18,177
18,178
18,179
18,180
18,181
18,182
18,183
18,184
18,185
19,186
19,187
19,188
19,189
20,190
20,191
21,192
21,193
21,194
21,195
21,196
22,197
22,198
22,199
22,200
22,201
22,202
22,203
23,204
23,205
23,206
23,207
23,208
25,209
25,210
25,211
25,212
25,213
25,214
25,215
25,216
25,217
25,218
26,219
27,220
27,221
27,222
27,223
27,224
28,225
29,226
29,227
29,228
29,229
29,230
30,231
30,232
31,233
31,234
31,235
31,236
31,237
31,238
31,239
31,240
31,241
31,242
31,243
32,244
33,245
33,246
33,247
33,248
33,249
33,250
33,251
34,252
34,253
34,254
34,255
34,256
34,257
35,258
35,259
36,260
36,261
36,262
36,263
36,264
36,265
37,266
37,267
37,268
37,269
37,270
37,271
37,272
38,273
38,274
38,275
39,276
39,277
39,278
39,279
39,280
39,281
39,282
39,283
39,284
39,285
39,286
40,287
40,288
41,289
41,290
41,291
41,292
41,293
41,294
41,295
41,296
42,297
42,298
42,299
43,300
43,301
44,302
44,303
45,304
45,305
45,306
45,307
45,308
45,309
45,310
45,311
45,312
45,313
45,314
45,315
47,316
47,317
47,318
47,319
47,320
47,321
47,322
47,323
47,324
47,325
47,326
48,327
48,328
48,329
48,330
48,331
48,332
49,333
49,334
49,335
49,336
50,337
50,338
50,339
50,340
50,341
50,342
50,343
50,344
50,345
50,346
50,347
50,348
50,349
50,350
50,351
50,352
51,353
51,354
51,355
52,356
52,357
52,358
52,359
53,360
53,361
54,362
54,363
54,364
54,365
54,366
54,367
54,368
54,369
54,370
54,371
54,372
54,373
54,374
55,375
55,376
55,377
55,378
55,379
55,380
55,381
55,382
55,383
55,384
55,385
55,386
55,387
55,388
56,389
56,390
57,391
57,392
57,393
57,394
57,395
57,396
57,397
57,398
59,399
59,400
59,401
59,402
59,403
59,404
59,405
59,406
60,407
60,408
61,409
61,410
61,411
61,412
61,413
61,414
61,415
61,416
61,417
61,418
61,419
61,420
61,421
61,422
61,423
61,424
61,425
61,426
61,427
61,428
61,429
61,430
61,431
61,432
61,433
61,434
61,435
62,436
62,437
62,438
62,439
62,440
62,441
63,442
63,443
63,444
63,445
63,446
64,447
64,448
64,449
64,450
64,451
64,452
64,453
64,454
64,455
64,456
65,457
65,458
65,459
65,460
66,461
66,462
66,463
66,464
66,465
66,466
66,467
66,468
66,469
67,470
68,471
68,472
69,473
69,474
69,475
69,476
69,477
69,478
70,479
70,480
70,481
70,482
70,483
70,484
70,485
70,486
70,487
70,488
70,489
70,490
70,491
70,492
70,493
70,494
70,495
71,496
72,497
73,498
73,499
73,500
73,501
73,502
74,503
74,504
74,505
74,506
75,507
75,508
75,509
75,510
75,511
75,512
76,513
76,514
76,515
76,516
76,517
76,518
76,519
76,520
76,521
76,522
77,523
77,524
77,525
77,526
77,527
78,528
78,529
78,530
79,531
79,532
80,533
80,534
80,535
81,536
81,537
81,538
81,539
81,540
81,541
81,542
81,543
81,544
82,545
82,546
82,547
82,548
82,549
82,550
82,551
82,552
82,553
82,554
82,555
82,556
82,557
82,558
82,559
82,560
83,561
84,562
84,563
84,564
85,565
85,566
85,567
85,568
85,569
85,570
85,571
85,572
86,573
86,574
87,575
87,576
88,577
88,578
88,579
88,580
88,581
88,582
88,583
88,584
88,585
89,586
89,587
89,588
89,589
89,590
89,591
89,592
89,593
89,594
89,595
90,596
90,597
90,598
90,599
90,600
90,601
91,602
91,603
91,604
91,605
92,606
92,607
92,608
92,609
92,610
92,611
92,612
92,613
92,614
92,615
93,616
93,617
93,618
93,619
93,620
93,621
93,622
93,623
94,624
94,625
94,626
94,627
94,628
94,629
94,630
94,631
94,632
94,633
94,634
96,635
96,636
96,637
96,638
96,639
97,640
97,641
97,642
97,643
98,644
98,645
98,646
98,647
98,648
98,649
99,650
99,651
99,652
99,653
99,654
99,655
99,656
99,657
99,658
100,659
100,660
100,661
100,662
100,663
100,664
101,665
101,666
101,667
101,668
101,669
101,670
101,671
101,672
101,673
101,674
101,675
101,676
101,677
101,678
102,679
103,680
103,681
103,682
103,683
103,684
103,685
103,686
103,687
103,688
103,689
103,690
103,691
103,692
103,693
105,694
105,695
105,696
105,697
106,698
106,699
106,700
106,701
106,702
106,703
106,704
106,705
106,706
106,707
107,708
107,709
107,710
107,711
107,712
107,713
107,714
107,715
107,716
108,717
108,718
108,719
108,720
108,721
109,722
109,723
109,724
109,725
109,726
109,727
109,728
109,729
110,730
110,731
112,732
112,733
112,734
112,735
112,736
112,737
112,738
112,739
112,740
112,741
112,742
112,743
112,744
115,745
115,746
115,747
116,748
116,749
116,750
116,751
116,752
116,753
116,754
116,755
116,756
117,757
117,758
117,759
117,760
117,761
117,762
117,763
117,764
117,765
118,766
118,767
118,768
119,769
119,770
119,771
119,772
119,773
119,774
119,775
119,776
119,777
119,778
120,779
121,780
121,781
121,782
121,783
121,784
121,785
122,786
122,787
123,788
123,789
123,790
123,791
123,792
123,793
123,794
123,795
123,796
123,797
123,798
123,799
125,800
125,801
126,802
126,803
126,804
126,805
126,806
126,807
127,808
127,809
127,810
127,811
127,812
127,813
127,814
127,815
127,816
127,817
127,818
127,819
127,820
127,821
128,822
129,823
129,824
129,825
129,826
129,827
129,828
129,829
129,830
130,831
130,832
130,833
130,834
131,835
132,836
132,837
132,838
132,839
132,840
132,841
132,842
132,843
132,844
133,845
133,846
133,847
133,848
133,849
133,850
133,851
133,852
133,853
133,854
133,855
133,856
133,857
133,858
133,859
133,860
134,861
135,862
136,863
137,864
137,865
137,866
137,867
137,868
137,869
137,870
137,871
137,872
137,873
137,874
138,875
138,876
138,877
138,878
138,879
138,880
138,881
138,882
138,883
138,884
138,885
138,886
138,887
139,888
139,889
140,890
140,891
140,892
140,893
140,894
141,895
141,896
141,897
141,898
141,899
141,900
142,901
142,902
143,903
144,904
144,905
144,906
144,907
144,908
144,909
144,910
145,911
145,912
145,913
145,914
145,915
145,916
145,917
145,918
145,919
145,920
145,921
145,922
145,923
145,924
145,925
146,926
146,927
146,928
146,929
146,930
146,931
146,932
147,933
147,934
147,935
147,936
148,937
148,938
148,939
148,940
148,941
148,942
148,943
148,944
148,945
148,946
148,947
148,948
148,949
148,950
148,951
148,952
148,953
148,954
148,955
148,956
148,957
148,958
148,959
149,960
150,961
150,962
150,963
150,964
151,965
151,966
151,967
152,968
152,969
152,970
152,971
152,972
152,973
152,974
152,975
152,976
152,977
152,978
152,979
152,980
153,981
153,982
153,983
154,984
154,985
155,986
155,987
155,988
155,989
155,990
155,991
155,992
156,993
156,994
156,995
156,996
156,997
156,998
156,999
157,1000
157,1001
157,1002
157,1003
157,1004
157,1005
157,1006
157,1007
157,1008
158,1009
159,1010
159,1011
160,1012
160,1013
160,1014
160,1015
160,1016
160,1017
160,1018
160,1019
160,1020
160,1021
160,1022
160,1023
160,1024
160,1025
160,1026
160,1027
160,1028
160,1029
160,1030
160,1031
160,1032
160,1033
160,1034
160,1035
160,1036
160,1037
160,1038
160,1039
160,1040
160,1041
160,1042
160,1043
160,1044
160,1045
160,1046
160,1047
160,1048
162,1049
164,1050
164,1051
165,1052
165,1053
165,1054
165,1055
165,1056
165,1057
165,1058
165,1059
165,1060
165,1061
165,1062
165,1063
166,1064
166,1065
166,1066
167,1067
167,1068
167,1069
167,1070
167,1071
167,1072
167,1073
167,1074
168,1075
168,1076
168,1077
168,1078
168,1079
168,1080
169,1081
169,1082
170,1083
170,1084
170,1085
170,1086
170,1087
170,1088
171,1089
171,1090
171,1091
171,1092
171,1093
171,1094
171,1095
171,1096
171,1097
171,1098
172,1099
172,1100
173,1101
174,1102
174,1103
174,1104
174,1105
174,1106
174,1107
174,1108
175,1109
175,1110
175,1111
176,1112
176,1113
176,1114
176,1115
176,1116
176,1117
176,1118
176,1119
177,1120
177,1121
177,1122
177,1123
177,1124
178,1125
178,1126
178,1127
178,1128
178,1129
179,1130
179,1131
180,1132
180,1133
180,1134
180,1135
180,1136
180,1137
180,1138
180,1139
181,1140
181,1141
181,1142
182,1143
183,1144
183,1145
183,1146
183,1147
183,1148
183,1149
183,1150
183,1151
183,1152
183,1153
183,1154
183,1155
184,1156
184,1157
184,1158
184,1159
184,1160
184,1161
184,1162
184,1163
184,1164
184,1165
184,1166
184,1167
184,1168
185,1169
185,1170
185,1171
185,1172
185,1173
186,1174
186,1175
186,1176
186,1177
186,1178
186,1179
186,1180
186,1181
186,1182
187,1183
189,1184
190,1185
190,1186
190,1187
190,1188
190,1189
190,1190
190,1191
190,1192
190,1193
190,1194
191,1195
191,1196
191,1197
191,1198
191,1199
191,1200
191,1201
191,1202
191,1203
191,1204
191,1205
191,1206
191,1207
191,1208
191,1209
191,1210
191,1211
191,1212
191,1213
191,1214
192,1215
192,1216
193,1217
193,1218
193,1219
193,1220
193,1221
193,1222
194,1223
194,1224
194,1225
194,1226
194,1227
194,1228
194,1229
194,1230
194,1231
194,1232
194,1233
195,1234
195,1235
195,1236
195,1237
196,1238
196,1239
196,1240
197,1241
197,1242
197,1243
197,1244
197,1245
197,1246
197,1247
197,1248
197,1249
197,1250
197,1251
197,1252
197,1253
198,1254
198,1255
198,1256
198,1257
199,1258
199,1259
199,1260
199,1261
199,1262
199,1263
199,1264
199,1265
199,1266
200,1267
200,1268
200,1269
200,1270
200,1271
200,1272
200,1273
200,1274
200,1275
200,1276
200,1277
200,1278
200,1279
200,1280
200,1281
200,1282
200,1283
201,1284
201,1285
201,1286
202,1287
202,1288
202,1289
203,1290
203,1291
204,1292
204,1293
204,1294
204,1295
204,1296
204,1297
204,1298
204,1299
204,1300
204,1301
204,1302
204,1303
204,1304
204,1305
204,1306
204,1307
205,1308
206,1309
206,1310
206,1311
207,1312
207,1313
207,1314
207,1315
207,1316
207,1317
207,1318
207,1319
207,1320
208,1321
208,1322
208,1323
208,1324
208,1325
209,1326
209,1327
209,1328
209,1329
209,1330
209,1331
210,1332
210,1333
210,1334
211,1335
211,1336
211,1337
211,1338
211,1339
211,1340
211,1341
212,1342
212,1343
212,1344
212,1345
212,1346
212,1347
212,1348
212,1349
212,1350
212,1351
212,1352
212,1353
213,1354
213,1355
213,1356
214,1357
214,1358
214,1359
214,1360
214,1361
214,1362
214,1363
214,1364
214,1365
215,1366
215,1367
215,1368
215,1369
215,1370
215,1371
215,1372
215,1373
216,1374
216,1375
216,1376
216,1377
216,1378
217,1379
217,1380
218,1381
218,1382
218,1383
218,1384
218,1385
218,1386
219,1387
219,1388
219,1389
219,1390
219,1391
219,1392
219,1393
219,1394
219,1395
219,1396
219,1397
220,1398
220,1399
220,1400
221,1401
221,1402
221,1403
221,1404
221,1405
222,1406
222,1407
224,1408
224,1409
224,1410
224,1411
224,1412
225,1413
225,1414
225,1415
225,1416
226,1417
226,1418
226,1419
226,1420
226,1421
226,1422
226,1423
226,1424
226,1425
226,1426
226,1427
228,1428
228,1429
228,1430
228,1431
229,1432
229,1433
229,1434
229,1435
229,1436
229,1437
229,1438
229,1439
229,1440
229,1441
229,1442
229,1443
229,1444
229,1445
229,1446
229,1447
229,1448
230,1449
230,1450
230,1451
231,1452
232,1453
232,1454
232,1455
232,1456
232,1457
232,1458
233,1459
233,1460
233,1461
233,1462
233,1463
233,1464
233,1465
233,1466
234,1467
234,1468
234,1469
234,1470
234,1471
234,1472
234,1473
234,1474
234,1475
235,1476
235,1477
235,1478
235,1479
235,1480
235,1481
235,1482
235,1483
235,1484
235,1485
236,1486
236,1487
237,1488
237,1489
237,1490
237,1491
237,1492
237,1493
237,1494
237,1495
237,1496
237,1497
237,1498
237,1499
237,1500
237,1501
237,1502
238,1503
238,1504
239,1505
240,1506
240,1507
240,1508
240,1509
240,1510
240,1511
240,1512
240,1513
240,1514
242,1515
242,1516
242,1517
242,1518
242,1519
242,1520
242,1521
242,1522
242,1523
243,1524
243,1525
243,1526
243,1527
243,1528
243,1529
243,1530
243,1531
243,1532
243,1533
243,1534
243,1535
243,1536
243,1537
243,1538
243,1539
243,1540
243,1541
243,1542
244,1543
244,1544
245,1545
245,1546
245,1547
245,1548
246,1549
246,1550
246,1551
246,1552
246,1553
246,1554
246,1555
246,1556
246,1557
246,1558
246,1559
247,1560
247,1561
247,1562
247,1563
247,1564
247,1565
247,1566
247,1567
248,1568
248,1569
248,1570
248,1571
248,1572
249,1573
249,1574
249,1575
249,1576
249,1577
249,1578
250,1579
251,1580
251,1581
251,1582
251,1583
252,1584
252,1585
252,1586
252,1587
252,1588
252,1589
253,1590
253,1591
253,1592
253,1593
253,1594
253,1595
253,1596
253,1597
253,1598
253,1599
253,1600
253,1601
253,1602
253,1603
254,1604
255,1605
255,1606
255,1607
255,1608
255,1609
255,1610
255,1611
255,1612
255,1613
255,1614
255,1615
256,1616
256,1617
256,1618
256,1619
257,1620
258,1621
258,1622
258,1623
258,1624
259,1625
259,1626
259,1627
259,1628
260,1629
260,1630
260,1631
260,1632
260,1633
260,1634
260,1635
260,1636
261,1637
262,1638
262,1639
262,1640
262,1641
262,1642
262,1643
262,1644
263,1645
263,1646
263,1647
263,1648
263,1649
263,1650
263,1651
263,1652
263,1653
263,1654
263,1655
264,1656
264,1657
264,1658
264,1659
264,1660
266,1661
266,1662
266,1663
266,1664
266,1665
266,1666
266,1667
267,1668
267,1669
267,1670
267,1671
267,1672
267,1673
267,1674
267,1675
267,1676
267,1677
268,1678
268,1679
268,1680
268,1681
268,1682
268,1683
268,1684
268,1685
268,1686
268,1687
268,1688
268,1689
268,1690
268,1691
269,1692
269,1693
270,1694
270,1695
270,1696
270,1697
270,1698
270,1699
270,1700
270,1701
270,1702
270,1703
270,1704
271,1705
271,1706
272,1707
272,1708
272,1709
272,1710
272,1711
272,1712
272,1713
272,1714
272,1715
272,1716
272,1717
272,1718
273,1719
